…
We then read this back into R as a data.frame

asm <- suppressWarnings(
  readr::read_fwf(paste(disas, collapse = "\n"), 
                  col_types = "ccc",
                  col_positions = readr::fwf_widths(c(16, 16, 21)))
)
colnames(asm) <- c("addr", "bytecode", "instr")
# trim the leading 0s from addr since this is all we're using
asm$addr <- substr(asm$addr, nchar(asm$addr)-1, nchar(asm$addr))
asm

## # A tibble: 33 x 3
##    addr  bytecode   instr        
##    <chr> <chr>      <chr>        
##  1 00    e800000000 call 0x5     
##  2 05    5b         pop ebx      
##  3 06    8bcb       mov ecx, ebx 
##  4 08    83c31e     add ebx, 0x1e
##  5 0b    33c0       xor eax, eax 
##  6 0d    33d2       xor edx, edx 
##  7 0f    8a03       mov al, [ebx]
##  8 11    8a11       mov dl, [ecx]
##  9 13    32c2       xor al, dl   
## 10 15    8803       mov [ebx], al
## # … with 23 more rows
…
Punch card

The whole thing works, of course

hello_asm <- suppressWarnings(
  readr::read_fwf(system.file("asm", "helloworld.asm", package = "rx86"), 
                  col_types = "ccc",
                  col_positions = readr::fwf_widths(c(3, 3, 20)))
)
colnames(hello_asm) <- c("addr", "bytecode", "instr")
print(hello_asm)

## # A tibble: 23 x 3
##    addr  bytecode instr        
##    <chr> <chr>    <chr>        
##  1 00    10       mov ecx, 0x0e
##  2 01    10       mov al, 0x08 
##  3 02    10       mov eax, [al]
##  4 03    cc       int 0x80     
##  5 04    28       sub ecx, 0x01
##  6 05    70       jz 0x17      
##  7 06    05       add al, 0x01 
##  8 07    e9       jmp 0x02     
##  9 08    48       data         
## 10 09    65       data         
## # … with 13 more rows
…
